…
```r
res <- ns_data(uid = 'ELEMENT_GLOBAL.2.100925')
names(res$ELEMENT_GLOBAL.2.100925)
#>  [1] "uid"                "speciesCode"        "natureserve_uri"
#>  [4] "classification"     "economicAttributes" "license"
#>  [7] "references"         "conservationStatus" "managementSummary"
#> [10] "distribution"
```

dig into distribution in various watersheds


```r
res$ELEMENT_GLOBAL.2.100925$distribution$watersheds
#> # A tibble: 458 × 4
#>     type         watershedName watershedCode speciesOccurrenceCount
#>    <chr>                 <chr>         <chr>                  <chr>
#> 1  HUC-8              Allagash      01010002                      1
#> 2  HUC-8 East Branch Penobscot      01020002                      1
#> 3  HUC-8        Upper Kennebec      01030001                      1
#> 4  HUC-8                  Dead      01030002                      7
#> 5  HUC-8        Lower Kennebec      01030003                      1
#> 6  HUC-8    Upper Androscoggin      01040001                      2
#> 7  HUC-8    Lower Androscoggin      01040002                      2
#> 8  HUC-8                  Saco      01060002                      4
#> 9  HUC-8          Upper Hudson      02020001                      3
#> 10 HUC-8      Hudson-Wappinger      02020008                      2
#> # ... with 448 more rows
```
…
