http_interactions:
- request:
    method: post
    uri: https://explorer.natureserve.org/api/data/speciesSearch
    body:
      encoding: ''
      string: '{"criteriaType":"species","textCriteria":[{"paramType":"quickSearch","searchToken":"robin"}]}'
    headers:
      User-Agent: libcurl/7.64.1 r-curl/4.3 crul/0.9.0
      Content-Type: application/json
      Accept-Encoding: gzip, deflate
      Accept: application/json
  response:
    status:
      status_code: '200'
      message: OK
      explanation: Request fulfilled, document follows
    headers:
      status: HTTP/1.1 200 200
      date: Tue, 12 May 2020 23:11:44 GMT
      server: Apache/2.4.41 (Win64) OpenSSL/1.1.1c
      content-type: application/json;charset=UTF-8
      transfer-encoding: chunked
    body:
      encoding: UTF-8
      file: no
      string: '{"results":[{"recordType":"SPECIES","elementGlobalId":100637,"uniqueId":"ELEMENT_GLOBAL.2.100637","nsxUrl":"/Taxon/ELEMENT_GLOBAL.2.100637/Copsychus_saularis","elcode":"ABPBJ13020","scientificName":"Copsychus
        saularis","formattedScientificName":"<i>Copsychus saularis</i>","primaryCommonName":"Oriental
        Magpie-Robin","primaryCommonNameLanguage":"EN","roundedGRank":"G5","nations":[{"nationCode":"US","roundedNRank":"NNA","subnations":[{"subnationCode":"HI","roundedSRank":"SNA","exotic":true}],"exotic":false}],"lastModified":"2020-04-30T02:06:58.756084Z","speciesGlobal":{"usesaCode":null,"cosewicCode":null,"saraCode":null,"synonyms":[],"otherCommonNames":["Shama
        dayal"],"kingdom":"Animalia","phylum":"Craniata","taxclass":"Aves","taxorder":"Passeriformes","family":"Muscicapidae","genus":"Copsychus","taxonomicComments":"Superspecifically
        related to <i>C. sechellarum</i> of the Seychelles Islands and <i>C. albospecularis</i>
        of Madagascar (Sibley and Monroe 1990). <i>C. niger</i> sometimes is regarded
        as closely related to and possibly conspecific with <i>C. saularis</i> (Sibley
        and Ahlquist 1990).","informalTaxonomy":"Animals - Vertebrates - Birds","infraspecies":false,"completeDistribution":true},"gRank":"G5"},{"recordType":"SPECIES","elementGlobalId":102323,"uniqueId":"ELEMENT_GLOBAL.2.102323","nsxUrl":"/Taxon/ELEMENT_GLOBAL.2.102323/Turdus_grayi","elcode":"ABPBJ20110","scientificName":"Turdus
        grayi","formattedScientificName":"<i>Turdus grayi</i>","primaryCommonName":"Clay-colored
        Thrush","primaryCommonNameLanguage":"EN","roundedGRank":"G5","nations":[{"nationCode":"US","roundedNRank":"N1","subnations":[{"subnationCode":"TX","roundedSRank":"S2B","exotic":false}],"exotic":false}],"lastModified":"2020-04-30T02:13:56.699783Z","speciesGlobal":{"usesaCode":null,"cosewicCode":null,"saraCode":null,"synonyms":[],"otherCommonNames":["Mirlo
        Pardo","Clay-colored Robin","Merle fauve"],"kingdom":"Animalia","phylum":"Craniata","taxclass":"Aves","taxorder":"Passeriformes","family":"Turdidae","genus":"Turdus","taxonomicComments":"Has
        been considered conspecific with <i>T. nudigenis</i> by a few authors (AOU
        1983).","informalTaxonomy":"Animals - Vertebrates - Birds","infraspecies":false,"completeDistribution":true},"gRank":"G5"},{"recordType":"SPECIES","elementGlobalId":102179,"uniqueId":"ELEMENT_GLOBAL.2.102179","nsxUrl":"/Taxon/ELEMENT_GLOBAL.2.102179/Turdus_migratorius","elcode":"ABPBJ20170","scientificName":"Turdus
        migratorius","formattedScientificName":"<i>Turdus migratorius</i>","primaryCommonName":"American
        Robin","primaryCommonNameLanguage":"EN","roundedGRank":"G5","nations":[{"nationCode":"US","roundedNRank":"N5","subnations":[{"subnationCode":"MD","roundedSRank":"S5B,S5N","exotic":false},{"subnationCode":"NV","roundedSRank":"S5","exotic":false},{"subnationCode":"PA","roundedSRank":"S5B","exotic":false},{"subnationCode":"MA","roundedSRank":"S5","exotic":false},{"subnationCode":"VT","roundedSRank":"S5B,S3N","exotic":false},{"subnationCode":"VA","roundedSRank":"S5","exotic":false},{"subnationCode":"IL","roundedSRank":"S5","exotic":false},{"subnationCode":"CT","roundedSRank":"S5B","exotic":false},{"subnationCode":"WY","roundedSRank":"S5B","exotic":false},{"subnationCode":"KS","roundedSRank":"S5","exotic":false},{"subnationCode":"AR","roundedSRank":"S5","exotic":false},{"subnationCode":"DE","roundedSRank":"S5","exotic":false},{"subnationCode":"IA","roundedSRank":"S5B,S5N","exotic":false},{"subnationCode":"OR","roundedSRank":"S5","exotic":false},{"subnationCode":"WA","roundedSRank":"S5B,S5N","exotic":false},{"subnationCode":"TN","roundedSRank":"S5","exotic":false},{"subnationCode":"TX","roundedSRank":"S4B,S5N","exotic":false},{"subnationCode":"ND","roundedSRank":"SNRB","exotic":false},{"subnationCode":"SC","roundedSRank":"SNR","exotic":false},{"subnationCode":"UT","roundedSRank":"S5","exotic":false},{"subnationCode":"NH","roundedSRank":"S5B","exotic":false},{"subnationCode":"OH","roundedSRank":"S5","exotic":false},{"subnationCode":"WI","roundedSRank":"S5B","exotic":false},{"subnationCode":"AZ","roundedSRank":"S5","exotic":false},{"subnationCode":"AL","roundedSRank":"S5","exotic":false},{"subnationCode":"CA","roundedSRank":"SNR","exotic":false},{"subnationCode":"LA","roundedSRank":"S4B,S5N","exotic":false},{"subnationCode":"NY","roundedSRank":"S5B","exotic":false},{"subnationCode":"RI","roundedSRank":"S5B","exotic":false},{"subnationCode":"IN","roundedSRank":"S5B","exotic":false},{"subnationCode":"ME","roundedSRank":"S5B,S5N","exotic":false},{"subnationCode":"NJ","roundedSRank":"S5B,S5N","exotic":false},{"subnationCode":"WV","roundedSRank":"S4N,S5B","exotic":false},{"subnationCode":"NM","roundedSRank":"S5B,S5N","exotic":false},{"subnationCode":"NC","roundedSRank":"S5B,S5N","exotic":false},{"subnationCode":"ID","roundedSRank":"S5","exotic":false},{"subnationCode":"GA","roundedSRank":"S5","exotic":false},{"subnationCode":"MN","roundedSRank":"SNRB,SNRN","exotic":false},{"subnationCode":"CO","roundedSRank":"S5","exotic":false},{"subnationCode":"MI","roundedSRank":"S5","exotic":false},{"subnationCode":"FL","roundedSRank":"SNRB,SNRN","exotic":false},{"subnationCode":"SD","roundedSRank":"S5B,S4N","exotic":false},{"subnationCode":"NE","roundedSRank":"S5","exotic":false},{"subnationCode":"OK","roundedSRank":"SNR","exotic":false},{"subnationCode":"DC","roundedSRank":"S5B,S5N","exotic":false},{"subnationCode":"KY","roundedSRank":"S5B,S5N","exotic":false},{"subnationCode":"MS","roundedSRank":"S5B,S5N","exotic":false},{"subnationCode":"MO","roundedSRank":"S5","exotic":false},{"subnationCode":"NN","roundedSRank":"S5","exotic":false},{"subnationCode":"MT","roundedSRank":"S5B","exotic":false},{"subnationCode":"AK","roundedSRank":"S5B","exotic":false}],"exotic":false},{"nationCode":"CA","roundedNRank":"N5B,N4N,N5M","subnations":[{"subnationCode":"BC","roundedSRank":"S5","exotic":false},{"subnationCode":"NU","roundedSRank":"S5B,S5M","exotic":false},{"subnationCode":"AB","roundedSRank":"S5B","exotic":false},{"subnationCode":"NS","roundedSRank":"S5B,S3N","exotic":false},{"subnationCode":"ON","roundedSRank":"S5B","exotic":false},{"subnationCode":"QC","roundedSRank":"S5B","exotic":false},{"subnationCode":"NT","roundedSRank":"S5B","exotic":false},{"subnationCode":"YT","roundedSRank":"S5B","exotic":false},{"subnationCode":"PE","roundedSRank":"S5B","exotic":false},{"subnationCode":"NF","roundedSRank":"S5B,S5M","exotic":false},{"subnationCode":"SK","roundedSRank":"S5B","exotic":false},{"subnationCode":"MB","roundedSRank":"S5B","exotic":false},{"subnationCode":"NB","roundedSRank":"S5B,S5M","exotic":false},{"subnationCode":"LB","roundedSRank":"S5B,S5M","exotic":false}],"exotic":false}],"lastModified":"2020-04-30T02:13:25.464942Z","speciesGlobal":{"usesaCode":null,"cosewicCode":null,"saraCode":null,"synonyms":[],"otherCommonNames":["Mirlo
        Primavera","American robin","Merle d''Amérique"],"kingdom":"Animalia","phylum":"Craniata","taxclass":"Aves","taxorder":"Passeriformes","family":"Turdidae","genus":"Turdus","taxonomicComments":"Resident
        population in mountains of southern Baja California sometimes is regarded
        as separate species, <i>T. confinis</i> (AOU 1983, 1998). See Aldrich and
        James (1991) for a summary of major geographic patterns in size, shape, and
        plumage color.","informalTaxonomy":"Animals - Vertebrates - Birds","infraspecies":false,"completeDistribution":true},"gRank":"G5"},{"recordType":"SPECIES","elementGlobalId":105536,"uniqueId":"ELEMENT_GLOBAL.2.105536","nsxUrl":"/Taxon/ELEMENT_GLOBAL.2.105536/Turdus_migratorius_propinquus","elcode":"ABPBJ20176","scientificName":"Turdus
        migratorius propinquus","formattedScientificName":"<i>Turdus migratorius propinquus</i>","primaryCommonName":"Western
        American Robin","primaryCommonNameLanguage":"EN","roundedGRank":"TU","nations":[{"nationCode":"US","roundedNRank":"NNR","subnations":[],"exotic":false}],"lastModified":"2020-04-30T02:25:34.538774Z","speciesGlobal":{"usesaCode":null,"cosewicCode":null,"saraCode":null,"synonyms":[],"otherCommonNames":[],"kingdom":"Animalia","phylum":"Craniata","taxclass":"Aves","taxorder":"Passeriformes","family":"Turdidae","genus":"Turdus","taxonomicComments":null,"informalTaxonomy":"Animals
        - Vertebrates - Birds","infraspecies":true,"completeDistribution":true},"gRank":"G5TU"},{"recordType":"SPECIES","elementGlobalId":105850,"uniqueId":"ELEMENT_GLOBAL.2.105850","nsxUrl":"/Taxon/ELEMENT_GLOBAL.2.105850/Turdus_rufopalliatus","elcode":"ABPBJ20150","scientificName":"Turdus
        rufopalliatus","formattedScientificName":"<i>Turdus rufopalliatus</i>","primaryCommonName":"Rufous-backed
        Robin","primaryCommonNameLanguage":"EN","roundedGRank":"G5","nations":[{"nationCode":"US","roundedNRank":"NNA","subnations":[{"subnationCode":"AZ","roundedSRank":"S1N","exotic":false}],"exotic":false}],"lastModified":"2020-04-30T02:26:39.445753Z","speciesGlobal":{"usesaCode":null,"cosewicCode":null,"saraCode":null,"synonyms":[],"otherCommonNames":["Merle
        à dos roux","Mirlo Dorso Rufo"],"kingdom":"Animalia","phylum":"Craniata","taxclass":"Aves","taxorder":"Passeriformes","family":"Turdidae","genus":"Turdus","taxonomicComments":"The
        form occurring on the Tres Marias Islands and coastal Nayarit may represent
        a distinct species, <i>Turdus graysoni</i>.","informalTaxonomy":"Animals -
        Vertebrates - Birds","infraspecies":false,"completeDistribution":true},"gRank":"G5"},{"recordType":"SPECIES","elementGlobalId":100589,"uniqueId":"ELEMENT_GLOBAL.2.100589","nsxUrl":"/Taxon/ELEMENT_GLOBAL.2.100589/Peristedion_gracile","elcode":"AFC4B02020","scientificName":"Peristedion
        gracile","formattedScientificName":"<i>Peristedion gracile</i>","primaryCommonName":"Slender
        Searobin","primaryCommonNameLanguage":"EN","roundedGRank":"GNR","nations":[{"nationCode":"CA","roundedNRank":"NU","subnations":[],"exotic":false}],"lastModified":"2020-04-30T02:06:42.958936Z","speciesGlobal":{"usesaCode":null,"cosewicCode":null,"saraCode":null,"synonyms":[],"otherCommonNames":[],"kingdom":"Animalia","phylum":"Craniata","taxclass":"Actinopterygii","taxorder":"Scorpaeniformes","family":"Peristediidae","genus":"Peristedion","taxonomicComments":null,"informalTaxonomy":"Animals
        - Vertebrates - Fishes - Marine Bony and Cartilaginous; Hagfishes","infraspecies":false,"completeDistribution":false},"gRank":"GNR"},{"recordType":"SPECIES","elementGlobalId":105826,"uniqueId":"ELEMENT_GLOBAL.2.105826","nsxUrl":"/Taxon/ELEMENT_GLOBAL.2.105826/Prionotus_alatus","elcode":"AFC4B01010","scientificName":"Prionotus
        alatus","formattedScientificName":"<i>Prionotus alatus</i>","primaryCommonName":"Spiny
        Searobin","primaryCommonNameLanguage":"EN","roundedGRank":"GNR","nations":[{"nationCode":"CA","roundedNRank":"NU","subnations":[],"exotic":false}],"lastModified":"2020-04-30T02:26:34.961311Z","speciesGlobal":{"usesaCode":null,"cosewicCode":null,"saraCode":null,"synonyms":[],"otherCommonNames":[],"kingdom":"Animalia","phylum":"Craniata","taxclass":"Actinopterygii","taxorder":"Scorpaeniformes","family":"Triglidae","genus":"Prionotus","taxonomicComments":null,"informalTaxonomy":"Animals
        - Vertebrates - Fishes - Marine Bony and Cartilaginous; Hagfishes","infraspecies":false,"completeDistribution":false},"gRank":"GNR"},{"recordType":"SPECIES","elementGlobalId":101394,"uniqueId":"ELEMENT_GLOBAL.2.101394","nsxUrl":"/Taxon/ELEMENT_GLOBAL.2.101394/Prionotus_carolinus","elcode":"AFC4B01020","scientificName":"Prionotus
        carolinus","formattedScientificName":"<i>Prionotus carolinus</i>","primaryCommonName":"Northern
        Searobin","primaryCommonNameLanguage":"EN","roundedGRank":"G5","nations":[{"nationCode":"US","roundedNRank":"N5","subnations":[{"subnationCode":"NY","roundedSRank":"SNRN","exotic":false},{"subnationCode":"CT","roundedSRank":"SNR","exotic":false},{"subnationCode":"RI","roundedSRank":"SNR","exotic":false}],"exotic":false}],"lastModified":"2020-04-30T02:10:15.102715Z","speciesGlobal":{"usesaCode":null,"cosewicCode":null,"saraCode":null,"synonyms":[],"otherCommonNames":[],"kingdom":"Animalia","phylum":"Craniata","taxclass":"Actinopterygii","taxorder":"Scorpaeniformes","family":"Triglidae","genus":"Prionotus","taxonomicComments":null,"informalTaxonomy":"Animals
        - Vertebrates - Fishes - Marine Bony and Cartilaginous; Hagfishes","infraspecies":false,"completeDistribution":false},"gRank":"G5"},{"recordType":"SPECIES","elementGlobalId":100276,"uniqueId":"ELEMENT_GLOBAL.2.100276","nsxUrl":"/Taxon/ELEMENT_GLOBAL.2.100276/Prionotus_evolans","elcode":"AFC4B01040","scientificName":"Prionotus
        evolans","formattedScientificName":"<i>Prionotus evolans</i>","primaryCommonName":"Striped
        Searobin","primaryCommonNameLanguage":"EN","roundedGRank":"G5","nations":[{"nationCode":"US","roundedNRank":"N5","subnations":[{"subnationCode":"CT","roundedSRank":"SNR","exotic":false},{"subnationCode":"RI","roundedSRank":"SNR","exotic":false},{"subnationCode":"GA","roundedSRank":"SNR","exotic":false},{"subnationCode":"NY","roundedSRank":"SNRN","exotic":false}],"exotic":false}],"lastModified":"2020-04-30T02:05:04.957478Z","speciesGlobal":{"usesaCode":null,"cosewicCode":null,"saraCode":null,"synonyms":[],"otherCommonNames":[],"kingdom":"Animalia","phylum":"Craniata","taxclass":"Actinopterygii","taxorder":"Scorpaeniformes","family":"Triglidae","genus":"Prionotus","taxonomicComments":null,"informalTaxonomy":"Animals
        - Vertebrates - Fishes - Marine Bony and Cartilaginous; Hagfishes","infraspecies":false,"completeDistribution":false},"gRank":"G5"},{"recordType":"SPECIES","elementGlobalId":103595,"uniqueId":"ELEMENT_GLOBAL.2.103595","nsxUrl":"/Taxon/ELEMENT_GLOBAL.2.103595/Prionotus_longispinosus","elcode":"AFC4B01180","scientificName":"Prionotus
        longispinosus","formattedScientificName":"<i>Prionotus longispinosus</i>","primaryCommonName":"Bigeye
        Searobin","primaryCommonNameLanguage":"EN","roundedGRank":"G5","nations":[{"nationCode":"US","roundedNRank":"N5","subnations":[],"exotic":false}],"lastModified":"2020-04-30T02:18:50.299927Z","speciesGlobal":{"usesaCode":null,"cosewicCode":null,"saraCode":null,"synonyms":[],"otherCommonNames":[],"kingdom":"Animalia","phylum":"Craniata","taxclass":"Actinopterygii","taxorder":"Scorpaeniformes","family":"Triglidae","genus":"Prionotus","taxonomicComments":null,"informalTaxonomy":"Animals
        - Vertebrates - Fishes - Marine Bony and Cartilaginous; Hagfishes","infraspecies":false,"completeDistribution":false},"gRank":"G5"},{"recordType":"SPECIES","elementGlobalId":102999,"uniqueId":"ELEMENT_GLOBAL.2.102999","nsxUrl":"/Taxon/ELEMENT_GLOBAL.2.102999/Prionotus_rubio","elcode":"AFC4B01080","scientificName":"Prionotus
        rubio","formattedScientificName":"<i>Prionotus rubio</i>","primaryCommonName":"Blackwing
        Searobin","primaryCommonNameLanguage":"EN","roundedGRank":"G5","nations":[{"nationCode":"US","roundedNRank":"N5","subnations":[{"subnationCode":"LA","roundedSRank":"S4","exotic":false}],"exotic":false}],"lastModified":"2020-04-30T02:16:36.092989Z","speciesGlobal":{"usesaCode":null,"cosewicCode":null,"saraCode":null,"synonyms":["Prionotus
        salmonicolor"],"otherCommonNames":[],"kingdom":"Animalia","phylum":"Craniata","taxclass":"Actinopterygii","taxorder":"Scorpaeniformes","family":"Triglidae","genus":"Prionotus","taxonomicComments":null,"informalTaxonomy":"Animals
        - Vertebrates - Fishes - Marine Bony and Cartilaginous; Hagfishes","infraspecies":false,"completeDistribution":false},"gRank":"G5"},{"recordType":"SPECIES","elementGlobalId":102336,"uniqueId":"ELEMENT_GLOBAL.2.102336","nsxUrl":"/Taxon/ELEMENT_GLOBAL.2.102336/Prionotus_tribulus","elcode":"AFC4B01130","scientificName":"Prionotus
        tribulus","formattedScientificName":"<i>Prionotus tribulus</i>","primaryCommonName":"Bighead
        Searobin","primaryCommonNameLanguage":"EN","roundedGRank":"G5","nations":[{"nationCode":"US","roundedNRank":"N5","subnations":[{"subnationCode":"GA","roundedSRank":"SNR","exotic":false},{"subnationCode":"LA","roundedSRank":"S4","exotic":false}],"exotic":false}],"lastModified":"2020-04-30T02:13:59.356104Z","speciesGlobal":{"usesaCode":null,"cosewicCode":null,"saraCode":null,"synonyms":[],"otherCommonNames":[],"kingdom":"Animalia","phylum":"Craniata","taxclass":"Actinopterygii","taxorder":"Scorpaeniformes","family":"Triglidae","genus":"Prionotus","taxonomicComments":null,"informalTaxonomy":"Animals
        - Vertebrates - Fishes - Marine Bony and Cartilaginous; Hagfishes","infraspecies":false,"completeDistribution":false},"gRank":"G5"},{"recordType":"SPECIES","elementGlobalId":962960,"uniqueId":"ELEMENT_GLOBAL.2.962960","nsxUrl":"/Taxon/ELEMENT_GLOBAL.2.962960/Triodopsis_juxtidens_robinae","elcode":"IMGASA1421","scientificName":"Triodopsis
        juxtidens robinae","formattedScientificName":"<i>Triodopsis juxtidens robinae</i>","primaryCommonName":"Brush
        Creek Threetooth","primaryCommonNameLanguage":"EN","roundedGRank":"T1","nations":[{"nationCode":"US","roundedNRank":"N1","subnations":[{"subnationCode":"WV","roundedSRank":"S1","exotic":false}],"exotic":false}],"lastModified":"2020-04-30T06:27:18.38021Z","speciesGlobal":{"usesaCode":null,"cosewicCode":null,"saraCode":null,"synonyms":[],"otherCommonNames":[],"kingdom":"Animalia","phylum":"Mollusca","taxclass":"Gastropoda","taxorder":"Stylommatophora","family":"Polygyridae","genus":"Triodopsis","taxonomicComments":null,"informalTaxonomy":"Animals
        - Mussels, Snails, & Other Molluscs - Terrestrial Snails","infraspecies":true,"completeDistribution":true},"gRank":"G5T1"},{"recordType":"SPECIES","elementGlobalId":917440,"uniqueId":"ELEMENT_GLOBAL.2.917440","nsxUrl":"/Taxon/ELEMENT_GLOBAL.2.917440/Amblycerus_robiniae","elcode":"IICOLAM020","scientificName":"Amblycerus
        robiniae","formattedScientificName":"<i>Amblycerus robiniae</i>","primaryCommonName":"a
        leaf beetle","primaryCommonNameLanguage":"EN","roundedGRank":"GNR","nations":[{"nationCode":"CA","roundedNRank":"NU","subnations":[],"exotic":false},{"nationCode":"US","roundedNRank":"NNR","subnations":[{"subnationCode":"IN","roundedSRank":"SNR","exotic":false}],"exotic":false}],"lastModified":"2020-04-30T06:02:20.154677Z","speciesGlobal":{"usesaCode":null,"cosewicCode":null,"saraCode":null,"synonyms":[],"otherCommonNames":[],"kingdom":"Animalia","phylum":"Mandibulata","taxclass":"Insecta","taxorder":"Coleoptera","family":"Chrysomelidae","genus":"Amblycerus","taxonomicComments":null,"informalTaxonomy":"Animals
        - Insects - Beetles - Other Beetles","infraspecies":false,"completeDistribution":false},"gRank":"GNR"},{"recordType":"SPECIES","elementGlobalId":110319,"uniqueId":"ELEMENT_GLOBAL.2.110319","nsxUrl":"/Taxon/ELEMENT_GLOBAL.2.110319/Anomala_robinsoni","elcode":"IICOL30010","scientificName":"Anomala
        robinsoni","formattedScientificName":"<i>Anomala robinsoni</i>","primaryCommonName":"Robinson''s
        Anomala Scarab Beetle","primaryCommonNameLanguage":"EN","roundedGRank":"G1","nations":[{"nationCode":"US","roundedNRank":"NNR","subnations":[{"subnationCode":"FL","roundedSRank":"S1","exotic":false}],"exotic":false}],"lastModified":"2020-04-30T02:44:22.259112Z","speciesGlobal":{"usesaCode":null,"cosewicCode":null,"saraCode":null,"synonyms":[],"otherCommonNames":[],"kingdom":"Animalia","phylum":"Mandibulata","taxclass":"Insecta","taxorder":"Coleoptera","family":"Scarabaeidae","genus":"Anomala","taxonomicComments":null,"informalTaxonomy":"Animals
        - Insects - Beetles - Other Beetles","infraspecies":false,"completeDistribution":false},"gRank":"G1?"},{"recordType":"SPECIES","elementGlobalId":747358,"uniqueId":"ELEMENT_GLOBAL.2.747358","nsxUrl":"/Taxon/ELEMENT_GLOBAL.2.747358/Megacyllene_robiniae","elcode":"IICOL04030","scientificName":"Megacyllene
        robiniae","formattedScientificName":"<i>Megacyllene robiniae</i>","primaryCommonName":"Locust
        Borer","primaryCommonNameLanguage":"EN","roundedGRank":"G5","nations":[{"nationCode":"CA","roundedNRank":"N5","subnations":[{"subnationCode":"PE","roundedSRank":"SU","exotic":false},{"subnationCode":"NB","roundedSRank":"S4","exotic":false},{"subnationCode":"NS","roundedSRank":"S4","exotic":false},{"subnationCode":"ON","roundedSRank":"SNR","exotic":false},{"subnationCode":"QC","roundedSRank":"SNR","exotic":false}],"exotic":false},{"nationCode":"US","roundedNRank":"NNR","subnations":[{"subnationCode":"IN","roundedSRank":"SNR","exotic":false},{"subnationCode":"MT","roundedSRank":"SNA","exotic":true},{"subnationCode":"RI","roundedSRank":"SNR","exotic":false}],"exotic":false}],"lastModified":"2020-04-30T05:19:32.94472Z","speciesGlobal":{"usesaCode":null,"cosewicCode":null,"saraCode":null,"synonyms":[],"otherCommonNames":[],"kingdom":"Animalia","phylum":"Mandibulata","taxclass":"Insecta","taxorder":"Coleoptera","family":"Cerambycidae","genus":"Megacyllene","taxonomicComments":null,"informalTaxonomy":"Animals
        - Insects - Beetles - Other Beetles","infraspecies":false,"completeDistribution":false},"gRank":"G5"},{"recordType":"SPECIES","elementGlobalId":121131,"uniqueId":"ELEMENT_GLOBAL.2.121131","nsxUrl":"/Taxon/ELEMENT_GLOBAL.2.121131/Phobetus_robinsoni","elcode":"IICOL4D010","scientificName":"Phobetus
        robinsoni","formattedScientificName":"<i>Phobetus robinsoni</i>","primaryCommonName":"Robinson''s
        Rain Scarab","primaryCommonNameLanguage":"EN","roundedGRank":"GNR","nations":[{"nationCode":"US","roundedNRank":"NNR","subnations":[{"subnationCode":"CA","roundedSRank":"SNR","exotic":false}],"exotic":false}],"lastModified":"2020-04-30T03:20:34.166216Z","speciesGlobal":{"usesaCode":null,"cosewicCode":null,"saraCode":null,"synonyms":[],"otherCommonNames":[],"kingdom":"Animalia","phylum":"Mandibulata","taxclass":"Insecta","taxorder":"Coleoptera","family":"Scarabaeidae","genus":"Phobetus","taxonomicComments":null,"informalTaxonomy":"Animals
        - Insects - Beetles - Other Beetles","infraspecies":false,"completeDistribution":false},"gRank":"GNR"},{"recordType":"SPECIES","elementGlobalId":920928,"uniqueId":"ELEMENT_GLOBAL.2.920928","nsxUrl":"/Taxon/ELEMENT_GLOBAL.2.920928/Trichapion_nigrum","elcode":"IICOLSX390","scientificName":"Trichapion
        nigrum","formattedScientificName":"<i>Trichapion nigrum</i>","primaryCommonName":"Black
        Locust Seed Weevil","primaryCommonNameLanguage":"EN","roundedGRank":"GNR","nations":[{"nationCode":"CA","roundedNRank":"N4","subnations":[{"subnationCode":"QC","roundedSRank":"SNR","exotic":false},{"subnationCode":"NB","roundedSRank":"SU","exotic":false}],"exotic":false}],"lastModified":"2020-04-30T06:12:46.382756Z","speciesGlobal":{"usesaCode":null,"cosewicCode":null,"saraCode":null,"synonyms":[],"otherCommonNames":["Charançon
        du robinier faux-acacia"],"kingdom":"Animalia","phylum":"Mandibulata","taxclass":"Insecta","taxorder":"Coleoptera","family":"Brentidae","genus":"Trichapion","taxonomicComments":null,"informalTaxonomy":"Animals
        - Insects - Beetles - Other Beetles","infraspecies":false,"completeDistribution":false},"gRank":"GNR"},{"recordType":"SPECIES","elementGlobalId":920978,"uniqueId":"ELEMENT_GLOBAL.2.920978","nsxUrl":"/Taxon/ELEMENT_GLOBAL.2.920978/Trox_robinsoni","elcode":"IICOL20200","scientificName":"Trox
        robinsoni","formattedScientificName":"<i>Trox robinsoni</i>","primaryCommonName":"a
        scarab beetle","primaryCommonNameLanguage":"EN","roundedGRank":"GNR","nations":[{"nationCode":"CA","roundedNRank":"N4","subnations":[{"subnationCode":"QC","roundedSRank":"SNR","exotic":false},{"subnationCode":"SK","roundedSRank":"S3","exotic":false},{"subnationCode":"MB","roundedSRank":"S4","exotic":false}],"exotic":false}],"lastModified":"2020-04-30T06:12:54.226577Z","speciesGlobal":{"usesaCode":null,"cosewicCode":null,"saraCode":null,"synonyms":[],"otherCommonNames":[],"kingdom":"Animalia","phylum":"Mandibulata","taxclass":"Insecta","taxorder":"Coleoptera","family":"Trogidae","genus":"Trox","taxonomicComments":null,"informalTaxonomy":"Animals
        - Insects - Beetles - Other Beetles","infraspecies":false,"completeDistribution":false},"gRank":"GNR"},{"recordType":"SPECIES","elementGlobalId":107469,"uniqueId":"ELEMENT_GLOBAL.2.107469","nsxUrl":"/Taxon/ELEMENT_GLOBAL.2.107469/Catocala_robinsonii","elcode":"IILEY89110","scientificName":"Catocala
        robinsonii","formattedScientificName":"<i>Catocala robinsonii</i>","primaryCommonName":"Robinson''s
        Underwing","primaryCommonNameLanguage":"EN","roundedGRank":"G4","nations":[{"nationCode":"US","roundedNRank":"NNR","subnations":[{"subnationCode":"OK","roundedSRank":"SNR","exotic":false},{"subnationCode":"KS","roundedSRank":"SNR","exotic":false},{"subnationCode":"VA","roundedSRank":"S3","exotic":false},{"subnationCode":"NY","roundedSRank":"SNR","exotic":false},{"subnationCode":"MA","roundedSRank":"SNR","exotic":false},{"subnationCode":"NJ","roundedSRank":"SNR","exotic":false},{"subnationCode":"MS","roundedSRank":"SNR","exotic":false},{"subnationCode":"NE","roundedSRank":"S1","exotic":false},{"subnationCode":"MO","roundedSRank":"SNR","exotic":false},{"subnationCode":"RI","roundedSRank":"SNR","exotic":false},{"subnationCode":"IL","roundedSRank":"SNR","exotic":false},{"subnationCode":"IA","roundedSRank":"SNR","exotic":false},{"subnationCode":"MI","roundedSRank":"SH","exotic":false},{"subnationCode":"WV","roundedSRank":"SNR","exotic":false},{"subnationCode":"TN","roundedSRank":"S4","exotic":false},{"subnationCode":"LA","roundedSRank":"SNR","exotic":false},{"subnationCode":"CT","roundedSRank":"SH","exotic":false},{"subnationCode":"AR","roundedSRank":"SNR","exotic":false},{"subnationCode":"AL","roundedSRank":"SNR","exotic":false},{"subnationCode":"OH","roundedSRank":"SNR","exotic":false},{"subnationCode":"KY","roundedSRank":"S4","exotic":false},{"subnationCode":"GA","roundedSRank":"SNR","exotic":false},{"subnationCode":"SC","roundedSRank":"SNR","exotic":false},{"subnationCode":"IN","roundedSRank":"SNR","exotic":false},{"subnationCode":"NH","roundedSRank":"SNR","exotic":false},{"subnationCode":"PA","roundedSRank":"SH","exotic":false},{"subnationCode":"NC","roundedSRank":"SNR","exotic":false},{"subnationCode":"SD","roundedSRank":"SNR","exotic":false}],"exotic":false},{"nationCode":"CA","roundedNRank":"NNR","subnations":[],"exotic":false}],"lastModified":"2020-04-30T02:33:05.061425Z","speciesGlobal":{"usesaCode":null,"cosewicCode":null,"saraCode":null,"synonyms":["Catocala
        robinsoni"],"otherCommonNames":[],"kingdom":"Animalia","phylum":"Mandibulata","taxclass":"Insecta","taxorder":"Lepidoptera","family":"Erebidae","genus":"Catocala","taxonomicComments":null,"informalTaxonomy":"Animals
        - Insects - Butterflies and Moths - Underwing Moths","infraspecies":false,"completeDistribution":true},"gRank":"G4"}],"resultsSummary":{"page":0,"recordsPerPage":20,"totalPages":6,"totalResults":103,"speciesResults":{"total":103}},"searchCriteria":{"criteriaType":"species","textCriteria":[{"paramType":"quickSearch","searchToken":"robin"}],"statusCriteria":null,"locationCriteria":null,"pagingOptions":{"page":0,"recordsPerPage":20},"recordSubtypeCriteria":null,"modifiedSince":null,"speciesTaxonomyCriteria":null}}'
  recorded_at: 2020-05-12 23:11:44 GMT
  recorded_with: vcr/0.5.4, webmockr/0.6.2
