http_interactions:
- request:
    method: post
    uri: https://explorer.natureserve.org/api/data/ecosystemsSearch
    body:
      encoding: ''
      string: '{"criteriaType":"ecosystems","textCriteria":[{"paramType":"quickSearch","searchToken":"robin"}]}'
    headers:
      User-Agent: libcurl/7.64.1 r-curl/4.3 crul/0.9.0
      Content-Type: application/json
      Accept-Encoding: gzip, deflate
      Accept: application/json
  response:
    status:
      status_code: '200'
      message: OK
      explanation: Request fulfilled, document follows
    headers:
      status: HTTP/1.1 200 200
      date: Tue, 12 May 2020 23:11:44 GMT
      server: Apache/2.4.41 (Win64) OpenSSL/1.1.1c
      content-type: application/json;charset=UTF-8
      transfer-encoding: chunked
    body:
      encoding: UTF-8
      file: no
      string: '{"results":[{"recordType":"ECOSYSTEM","elementGlobalId":899352,"uniqueId":"ELEMENT_GLOBAL.2.899352","nsxUrl":"/Taxon/ELEMENT_GLOBAL.2.899352/Liriodendron_tulipifera_-_Juglans_nigra_-_Robinia_pseudoacacia_Ruderal_Forest_Alliance","elcode":"A3228","scientificName":"Liriodendron
        tulipifera - Juglans nigra - Robinia pseudoacacia Ruderal Forest Alliance","formattedScientificName":"<i>Liriodendron
        tulipifera - Juglans nigra - Robinia pseudoacacia</i> Ruderal Forest Alliance","primaryCommonName":"Ruderal
        Tuliptree - Black Walnut - Black Locust Forest","primaryCommonNameLanguage":"EN","roundedGRank":"GNA","nations":[{"nationCode":"CA","roundedNRank":"NNA","subnations":[{"subnationCode":"ON","roundedSRank":"SNA"}]},{"nationCode":"US","roundedNRank":"NNA","subnations":[{"subnationCode":"MI","roundedSRank":"SNA"},{"subnationCode":"IN","roundedSRank":"SNA"},{"subnationCode":"TN","roundedSRank":"SNA"},{"subnationCode":"DE","roundedSRank":"SNA"},{"subnationCode":"NY","roundedSRank":"SNA"},{"subnationCode":"KY","roundedSRank":"SNA"},{"subnationCode":"IL","roundedSRank":"SNA"},{"subnationCode":"AL","roundedSRank":"SNA"},{"subnationCode":"NJ","roundedSRank":"SNA"},{"subnationCode":"PA","roundedSRank":"SNA"},{"subnationCode":"DC","roundedSRank":"SNA"},{"subnationCode":"OK","roundedSRank":"SNA"},{"subnationCode":"VA","roundedSRank":"SNA"},{"subnationCode":"GA","roundedSRank":"SNA"},{"subnationCode":"VT","roundedSRank":"SNA"},{"subnationCode":"MD","roundedSRank":"SNA"},{"subnationCode":"WV","roundedSRank":"SNA"},{"subnationCode":"NC","roundedSRank":"SNA"},{"subnationCode":"MO","roundedSRank":"SNA"},{"subnationCode":"OH","roundedSRank":"SNA"},{"subnationCode":"SC","roundedSRank":"SNA"},{"subnationCode":"IA","roundedSRank":"SNA"},{"subnationCode":"MS","roundedSRank":"SNA"},{"subnationCode":"LA","roundedSRank":"SNA"},{"subnationCode":"AR","roundedSRank":"SNA"},{"subnationCode":"MA","roundedSRank":"SNA"}]}],"lastModified":"2020-04-30T12:34:06.945206Z","ecosystemGlobal":{"translatedScientificName":"Tuliptree
        - Black Walnut - Black Locust Ruderal Forest Alliance","taxclassCode":"1","taxsubclassCode":"1.B","formationCode":"1.B.2","divisionCode":"1.B.2.Na","macrogroupKey":"M013","taxgroupKey":"G030","allianceKey":null,"ecosystemType":"ALLIANCE","classificationCode":"A3228","parentName":"Eastern
        North American Native Ruderal Forest"},"gRank":"GNA"},{"recordType":"ECOSYSTEM","elementGlobalId":1132396,"uniqueId":"ELEMENT_GLOBAL.2.1132396","nsxUrl":"/Taxon/ELEMENT_GLOBAL.2.1132396/Robinia_pseudoacacia_-_Exotic_Hardwoods_Ruderal_Woodland_Alliance","elcode":"A4396","scientificName":"Robinia
        pseudoacacia - Exotic Hardwoods Ruderal Woodland Alliance","formattedScientificName":"<i>Robinia
        pseudoacacia</i> - Exotic Hardwoods Ruderal Woodland Alliance","primaryCommonName":"Great
        Plains Exotic Hardwood Woodland","primaryCommonNameLanguage":"EN","roundedGRank":"GNR","nations":[{"nationCode":"US","roundedNRank":"NNR","subnations":[{"subnationCode":"OK","roundedSRank":"SNR"}]}],"lastModified":"2020-04-30T12:35:37.665513Z","ecosystemGlobal":{"translatedScientificName":"Black
        Locust - Exotic Hardwoods Ruderal Woodland Alliance","taxclassCode":"1","taxsubclassCode":"1.B","formationCode":"1.B.2","divisionCode":"1.B.2.Ne","macrogroupKey":"M524","taxgroupKey":"G892","allianceKey":null,"ecosystemType":"ALLIANCE","classificationCode":"A4396","parentName":"Great
        Plains Exotic Ruderal Woodland"},"gRank":"GNR"},{"recordType":"ECOSYSTEM","elementGlobalId":899790,"uniqueId":"ELEMENT_GLOBAL.2.899790","nsxUrl":"/Taxon/ELEMENT_GLOBAL.2.899790/Quercus_gambelii_-_Robinia_neomexicana_Shrubland_Alliance","elcode":"A3738","scientificName":"Quercus
        gambelii - Robinia neomexicana Shrubland Alliance","formattedScientificName":"<i>Quercus
        gambelii - Robinia neomexicana</i> Shrubland Alliance","primaryCommonName":"Gambel
        Oak - New Mexico Locust Shrubland","primaryCommonNameLanguage":"EN","roundedGRank":"GNR","nations":[{"nationCode":"US","roundedNRank":"NNR","subnations":[{"subnationCode":"NM","roundedSRank":"SNR"},{"subnationCode":"AZ","roundedSRank":"SNR"}]}],"lastModified":"2020-04-30T12:34:33.633447Z","ecosystemGlobal":{"translatedScientificName":"Gambel
        Oak - New Mexico Locust Shrubland Alliance","taxclassCode":"2","taxsubclassCode":"2.B","formationCode":"2.B.2","divisionCode":"2.B.2.Nf","macrogroupKey":"M049","taxgroupKey":"G277","allianceKey":null,"ecosystemType":"ALLIANCE","classificationCode":"A3738","parentName":"Southern
        Rocky Mountain Gambel Oak - Mixed Montane Shrubland"},"gRank":"GNR"},{"recordType":"ECOSYSTEM","elementGlobalId":683233,"uniqueId":"ELEMENT_GLOBAL.2.683233","nsxUrl":"/Taxon/ELEMENT_GLOBAL.2.683233/Carya_glabra_-_Tilia_americana_var_caroliniana_-_Acer_floridanum_-_Trillium_maculatum_Forest","elcode":"CEGL004747","scientificName":"Carya
        glabra - Tilia americana var. caroliniana - Acer floridanum / Trillium maculatum
        Forest","formattedScientificName":"<i>Carya glabra - Tilia americana var.
        caroliniana - Acer floridanum / Trillium maculatum</i> Forest","primaryCommonName":null,"primaryCommonNameLanguage":"EN","roundedGRank":"G2","nations":[{"nationCode":"US","roundedNRank":"NNR","subnations":[{"subnationCode":"SC","roundedSRank":"SNR"}]}],"lastModified":"2020-04-30T12:24:11.108153Z","ecosystemGlobal":{"translatedScientificName":"Pignut
        Hickory - Carolina Basswood - Southern Sugar Maple / Spotted Wakerobin Forest","taxclassCode":"1","taxsubclassCode":"1.B","formationCode":"1.B.1","divisionCode":"1.B.1.Na","macrogroupKey":"M008","taxgroupKey":"G166","allianceKey":"A3236","ecosystemType":"ASSOCIATION","classificationCode":"CEGL004747","parentName":"Acer
        floridanum - Quercus shumardii - Fraxinus americana Coastal Plain Forest Alliance"},"gRank":"G2G3"},{"recordType":"ECOSYSTEM","elementGlobalId":688156,"uniqueId":"ELEMENT_GLOBAL.2.688156","nsxUrl":"/Taxon/ELEMENT_GLOBAL.2.688156/Quercus_shumardii_-_Quercus_pagoda_-_Fraxinus_americana_-_Ostrya_virginiana_-_Trillium_ludovicianum_Forest","elcode":"CEGL007272","scientificName":"Quercus
        shumardii - Quercus pagoda - Fraxinus americana / Ostrya virginiana / Trillium
        ludovicianum Forest","formattedScientificName":"<i>Quercus shumardii - Quercus
        pagoda - Fraxinus americana / Ostrya virginiana / Trillium ludovicianum</i>
        Forest","primaryCommonName":"Jackson Formation Calcareous Forest","primaryCommonNameLanguage":"EN","roundedGRank":"G1","nations":[{"nationCode":"US","roundedNRank":"NNR","subnations":[{"subnationCode":"LA","roundedSRank":"SNR"},{"subnationCode":"MS","roundedSRank":"SNR"}]}],"lastModified":"2020-04-30T12:28:02.424156Z","ecosystemGlobal":{"translatedScientificName":"Shumard
        Oak - Cherrybark Oak - White Ash / Hophornbeam / Louisiana Wakerobin Forest","taxclassCode":"1","taxsubclassCode":"1.B","formationCode":"1.B.1","divisionCode":"1.B.1.Na","macrogroupKey":"M008","taxgroupKey":"G166","allianceKey":"A3235","ecosystemType":"ASSOCIATION","classificationCode":"CEGL007272","parentName":"Quercus
        shumardii - Quercus pagoda - Fraxinus americana Coastal Plain Forest Alliance"},"gRank":"G1"},{"recordType":"ECOSYSTEM","elementGlobalId":689488,"uniqueId":"ELEMENT_GLOBAL.2.689488","nsxUrl":"/Taxon/ELEMENT_GLOBAL.2.689488/Quercus_muehlenbergii_-_Cercis_canadensis_-_Bromus_pubescens_-_Erigeron_pulchellus_var_pulchellus_-_Aquilegia_canadensis_Forest","elcode":"CEGL007748","scientificName":"Quercus
        muehlenbergii / Cercis canadensis / Bromus pubescens - Erigeron pulchellus
        var. pulchellus - Aquilegia canadensis Forest","formattedScientificName":"<i>Quercus
        muehlenbergii / Cercis canadensis / Bromus pubescens - Erigeron pulchellus
        var. pulchellus - Aquilegia canadensis</i> Forest","primaryCommonName":"North
        Atlantic Coastal Plain Dry Calcareous Forest","primaryCommonNameLanguage":"EN","roundedGRank":"G1","nations":[{"nationCode":"US","roundedNRank":"NNR","subnations":[{"subnationCode":"DC","roundedSRank":"SNR"},{"subnationCode":"VA","roundedSRank":"S1"},{"subnationCode":"MD","roundedSRank":"S1"}]}],"lastModified":"2020-04-30T12:29:05.050071Z","ecosystemGlobal":{"translatedScientificName":"Chinquapin
        Oak / Eastern Redbud / Hairy Woodland Brome - Robin''s-plantain - Red Columbine
        Forest","taxclassCode":"1","taxsubclassCode":"1.B","formationCode":"1.B.2","divisionCode":"1.B.2.Na","macrogroupKey":"M502","taxgroupKey":"G495","allianceKey":"A4394","ecosystemType":"ASSOCIATION","classificationCode":"CEGL007748","parentName":"Quercus
        muehlenbergii - Mixed Hardwoods Calcareous Forest"},"gRank":"G1"},{"recordType":"ECOSYSTEM","elementGlobalId":754608,"uniqueId":"ELEMENT_GLOBAL.2.754608","nsxUrl":"/Taxon/ELEMENT_GLOBAL.2.754608/Prunus_serotina_-_Liriodendron_tulipifera_-_Acer_rubrum_-_Fraxinus_americana_-_(Robinia_pseudoacacia)_Ruderal_Forest","elcode":"CEGL006599","scientificName":"Prunus
        serotina - Liriodendron tulipifera - Acer rubrum - Fraxinus americana - (Robinia
        pseudoacacia) Ruderal Forest","formattedScientificName":"<i>Prunus serotina
        - Liriodendron tulipifera - Acer rubrum - Fraxinus americana - (Robinia pseudoacacia)</i>
        Ruderal Forest","primaryCommonName":"Northeastern Ruderal Hardwood Forest","primaryCommonNameLanguage":"EN","roundedGRank":"GNA","nations":[{"nationCode":"US","roundedNRank":"NNA","subnations":[{"subnationCode":"NY","roundedSRank":"SNA"},{"subnationCode":"MA","roundedSRank":"SNA"},{"subnationCode":"NJ","roundedSRank":"SNA"},{"subnationCode":"IN","roundedSRank":"SNA"},{"subnationCode":"MD","roundedSRank":"SNA"},{"subnationCode":"WV","roundedSRank":"SNA"},{"subnationCode":"DE","roundedSRank":"SNA"},{"subnationCode":"PA","roundedSRank":"SNA"},{"subnationCode":"CT","roundedSRank":"SNA"},{"subnationCode":"VA","roundedSRank":"SNA"}]}],"lastModified":"2020-04-30T12:31:19.271339Z","ecosystemGlobal":{"translatedScientificName":"Black
        Cherry - Tuliptree - Red Maple - White Ash - (Black Locust) Ruderal Forest","taxclassCode":"1","taxsubclassCode":"1.B","formationCode":"1.B.2","divisionCode":"1.B.2.Na","macrogroupKey":"M013","taxgroupKey":"G030","allianceKey":"A3229","ecosystemType":"ASSOCIATION","classificationCode":"CEGL006599","parentName":"Acer
        rubrum - Prunus serotina - Pinus strobus Ruderal Forest Alliance"},"gRank":"GNA"},{"recordType":"ECOSYSTEM","elementGlobalId":684349,"uniqueId":"ELEMENT_GLOBAL.2.684349","nsxUrl":"/Taxon/ELEMENT_GLOBAL.2.684349/Liriodendron_tulipifera_-_Acer_rubrum_-_Robinia_pseudoacacia_Ruderal_Forest","elcode":"CEGL007219","scientificName":"Liriodendron
        tulipifera - Acer rubrum - Robinia pseudoacacia Ruderal Forest","formattedScientificName":"<i>Liriodendron
        tulipifera - Acer rubrum - Robinia pseudoacacia</i> Ruderal Forest","primaryCommonName":"Appalachian
        Ruderal Hardwood Forest","primaryCommonNameLanguage":"EN","roundedGRank":"GNA","nations":[{"nationCode":"US","roundedNRank":"NNA","subnations":[{"subnationCode":"KY","roundedSRank":"SNA"},{"subnationCode":"GA","roundedSRank":"SNA"},{"subnationCode":"VA","roundedSRank":"SNA"},{"subnationCode":"SC","roundedSRank":"SNA"},{"subnationCode":"NC","roundedSRank":"SNA"},{"subnationCode":"TN","roundedSRank":"SNA"}]}],"lastModified":"2020-04-30T12:25:03.765203Z","ecosystemGlobal":{"translatedScientificName":"Tuliptree
        - Red Maple - Black Locust Ruderal Forest","taxclassCode":"1","taxsubclassCode":"1.B","formationCode":"1.B.2","divisionCode":"1.B.2.Na","macrogroupKey":"M013","taxgroupKey":"G030","allianceKey":"A3228","ecosystemType":"ASSOCIATION","classificationCode":"CEGL007219","parentName":"Liriodendron
        tulipifera - Juglans nigra - Robinia pseudoacacia Ruderal Forest Alliance"},"gRank":"GNA"},{"recordType":"ECOSYSTEM","elementGlobalId":689790,"uniqueId":"ELEMENT_GLOBAL.2.689790","nsxUrl":"/Taxon/ELEMENT_GLOBAL.2.689790/Robinia_pseudoacacia_-_Celtis_occidentalis_-_(Fraxinus_americana_Liriodendron_tulipifera)_Ruderal_Forest","elcode":"CEGL007281","scientificName":"Robinia
        pseudoacacia - Celtis occidentalis - (Fraxinus americana, Liriodendron tulipifera)
        Ruderal Forest","formattedScientificName":"<i>Robinia pseudoacacia - Celtis
        occidentalis - (Fraxinus americana, Liriodendron tulipifera)</i> Ruderal Forest","primaryCommonName":"Ruderal
        Black Locust Calcareous Forest","primaryCommonNameLanguage":"EN","roundedGRank":"GNA","nations":[{"nationCode":"US","roundedNRank":"NNA","subnations":[{"subnationCode":"WV","roundedSRank":"SNA"},{"subnationCode":"VA","roundedSRank":"SNA"},{"subnationCode":"MD","roundedSRank":"SNA"},{"subnationCode":"TN","roundedSRank":"SNA"}]}],"lastModified":"2020-04-30T12:29:17.941043Z","ecosystemGlobal":{"translatedScientificName":"Black
        Locust - Common Hackberry - (White Ash, Tuliptree) Ruderal Forest","taxclassCode":"1","taxsubclassCode":"1.B","formationCode":"1.B.2","divisionCode":"1.B.2.Na","macrogroupKey":"M013","taxgroupKey":"G030","allianceKey":"A3228","ecosystemType":"ASSOCIATION","classificationCode":"CEGL007281","parentName":"Liriodendron
        tulipifera - Juglans nigra - Robinia pseudoacacia Ruderal Forest Alliance"},"gRank":"GNA"},{"recordType":"ECOSYSTEM","elementGlobalId":684159,"uniqueId":"ELEMENT_GLOBAL.2.684159","nsxUrl":"/Taxon/ELEMENT_GLOBAL.2.684159/Robinia_pseudoacacia_Ruderal_Forest","elcode":"CEGL007279","scientificName":"Robinia
        pseudoacacia Ruderal Forest","formattedScientificName":"<i>Robinia pseudoacacia</i>
        Ruderal Forest","primaryCommonName":"Ruderal Black Locust Forest","primaryCommonNameLanguage":"EN","roundedGRank":"GNA","nations":[{"nationCode":"US","roundedNRank":"NNA","subnations":[{"subnationCode":"NY","roundedSRank":"SNA"},{"subnationCode":"AR","roundedSRank":"SNA"},{"subnationCode":"MS","roundedSRank":"SNA"},{"subnationCode":"WV","roundedSRank":"SNA"},{"subnationCode":"OK","roundedSRank":"SNA"},{"subnationCode":"OH","roundedSRank":"SNA"},{"subnationCode":"KY","roundedSRank":"SNA"},{"subnationCode":"MA","roundedSRank":"SNA"},{"subnationCode":"NJ","roundedSRank":"SNA"},{"subnationCode":"IA","roundedSRank":"SNA"},{"subnationCode":"TN","roundedSRank":"SNA"},{"subnationCode":"NC","roundedSRank":"SNA"},{"subnationCode":"VT","roundedSRank":"SNA"},{"subnationCode":"PA","roundedSRank":"SNA"},{"subnationCode":"MD","roundedSRank":"SNA"},{"subnationCode":"VA","roundedSRank":"SNA"},{"subnationCode":"DE","roundedSRank":"SNA"}]}],"lastModified":"2020-04-30T12:24:54.983812Z","ecosystemGlobal":{"translatedScientificName":"Black
        Locust Ruderal Forest","taxclassCode":"1","taxsubclassCode":"1.B","formationCode":"1.B.2","divisionCode":"1.B.2.Na","macrogroupKey":"M013","taxgroupKey":"G030","allianceKey":"A3228","ecosystemType":"ASSOCIATION","classificationCode":"CEGL007279","parentName":"Liriodendron
        tulipifera - Juglans nigra - Robinia pseudoacacia Ruderal Forest Alliance"},"gRank":"GNA"},{"recordType":"ECOSYSTEM","elementGlobalId":835317,"uniqueId":"ELEMENT_GLOBAL.2.835317","nsxUrl":"/Taxon/ELEMENT_GLOBAL.2.835317/Populus_tremuloides_-_Robinia_neomexicana_Woodland","elcode":"CEGL005503","scientificName":"Populus
        tremuloides / Robinia neomexicana Woodland","formattedScientificName":"<i>Populus
        tremuloides / Robinia neomexicana</i> Woodland","primaryCommonName":null,"primaryCommonNameLanguage":"EN","roundedGRank":"GNR","nations":[{"nationCode":"US","roundedNRank":"NNR","subnations":[{"subnationCode":"AZ","roundedSRank":"SNR"}]}],"lastModified":"2020-04-30T12:32:15.350038Z","ecosystemGlobal":{"translatedScientificName":"Quaking
        Aspen / New Mexico Locust Woodland","taxclassCode":"1","taxsubclassCode":"1.B","formationCode":"1.B.2","divisionCode":"1.B.2.Nb","macrogroupKey":"M020","taxgroupKey":"G222","allianceKey":"A4078","ecosystemType":"ASSOCIATION","classificationCode":"CEGL005503","parentName":"Populus
        tremuloides Southern Rocky Mountain Woodland & Scrub Alliance"},"gRank":"GNR"},{"recordType":"ECOSYSTEM","elementGlobalId":820840,"uniqueId":"ELEMENT_GLOBAL.2.820840","nsxUrl":"/Taxon/ELEMENT_GLOBAL.2.820840/Pinus_ponderosa_-_Robinia_neomexicana_Woodland","elcode":"CEGL005374","scientificName":"Pinus
        ponderosa / Robinia neomexicana Woodland","formattedScientificName":"<i>Pinus
        ponderosa / Robinia neomexicana</i> Woodland","primaryCommonName":null,"primaryCommonNameLanguage":"EN","roundedGRank":"GNR","nations":[{"nationCode":"US","roundedNRank":"NNR","subnations":[{"subnationCode":"AZ","roundedSRank":"SNR"},{"subnationCode":"NM","roundedSRank":"SNR"}]}],"lastModified":"2020-04-30T12:32:05.365232Z","ecosystemGlobal":{"translatedScientificName":"Ponderosa
        Pine / New Mexico Locust Woodland","taxclassCode":"1","taxsubclassCode":"1.B","formationCode":"1.B.2","divisionCode":"1.B.2.Nb","macrogroupKey":"M022","taxgroupKey":"G228","allianceKey":"A3398","ecosystemType":"ASSOCIATION","classificationCode":"CEGL005374","parentName":"Pinus
        ponderosa Southern Rocky Mountain Forest & Woodland Alliance"},"gRank":"GNR"},{"recordType":"ECOSYSTEM","elementGlobalId":684393,"uniqueId":"ELEMENT_GLOBAL.2.684393","nsxUrl":"/Taxon/ELEMENT_GLOBAL.2.684393/Abies_concolor_-_Pseudotsuga_menziesii_-_Robinia_neomexicana_Woodland","elcode":"CEGL000891","scientificName":"Abies
        concolor - Pseudotsuga menziesii / Robinia neomexicana Woodland","formattedScientificName":"<i>Abies
        concolor - Pseudotsuga menziesii / Robinia neomexicana</i> Woodland","primaryCommonName":null,"primaryCommonNameLanguage":"EN","roundedGRank":"G4","nations":[{"nationCode":"US","roundedNRank":"NNR","subnations":[{"subnationCode":"AZ","roundedSRank":"S3"},{"subnationCode":"NM","roundedSRank":"S3"}]}],"lastModified":"2020-04-30T12:25:05.890668Z","ecosystemGlobal":{"translatedScientificName":"White
        Fir - Douglas-fir / New Mexico Locust Woodland","taxclassCode":"1","taxsubclassCode":"1.B","formationCode":"1.B.2","divisionCode":"1.B.2.Nb","macrogroupKey":"M022","taxgroupKey":"G226","allianceKey":"A3420","ecosystemType":"ASSOCIATION","classificationCode":"CEGL000891","parentName":"Abies
        concolor Dry Forest & Woodland Alliance"},"gRank":"G4Q"},{"recordType":"ECOSYSTEM","elementGlobalId":1132400,"uniqueId":"ELEMENT_GLOBAL.2.1132400","nsxUrl":"/Taxon/ELEMENT_GLOBAL.2.1132400/Robinia_pseudoacacia_Ruderal_Woodland","elcode":"CEGL008288","scientificName":"Robinia
        pseudoacacia Ruderal Woodland","formattedScientificName":"<i>Robinia pseudoacacia</i>
        Ruderal Woodland","primaryCommonName":"Black Locust Ruderal Woodland","primaryCommonNameLanguage":"EN","roundedGRank":"GNR","nations":[{"nationCode":"US","roundedNRank":"NNR","subnations":[{"subnationCode":"OK","roundedSRank":"SNR"}]}],"lastModified":"2020-04-30T12:35:38.634055Z","ecosystemGlobal":{"translatedScientificName":"Black
        Locust Ruderal Woodland","taxclassCode":"1","taxsubclassCode":"1.B","formationCode":"1.B.2","divisionCode":"1.B.2.Ne","macrogroupKey":"M524","taxgroupKey":"G892","allianceKey":"A4396","ecosystemType":"ASSOCIATION","classificationCode":"CEGL008288","parentName":"Robinia
        pseudoacacia - Exotic Hardwoods Ruderal Woodland Alliance"},"gRank":"GNR"},{"recordType":"ECOSYSTEM","elementGlobalId":821393,"uniqueId":"ELEMENT_GLOBAL.2.821393","nsxUrl":"/Taxon/ELEMENT_GLOBAL.2.821393/Quercus_gambelii_-_Robinia_neomexicana_-_Carex_inops_ssp_heliophila_Shrubland","elcode":"CEGL005379","scientificName":"Quercus
        gambelii - Robinia neomexicana / Carex inops ssp. heliophila Shrubland","formattedScientificName":"<i>Quercus
        gambelii - Robinia neomexicana / Carex inops ssp. heliophila</i> Shrubland","primaryCommonName":null,"primaryCommonNameLanguage":"EN","roundedGRank":"GNR","nations":[{"nationCode":"US","roundedNRank":"NNR","subnations":[{"subnationCode":"NM","roundedSRank":"SNR"}]}],"lastModified":"2020-04-30T12:32:09.271589Z","ecosystemGlobal":{"translatedScientificName":"Gambel
        Oak - New Mexico Locust / Sun Sedge Shrubland","taxclassCode":"2","taxsubclassCode":"2.B","formationCode":"2.B.2","divisionCode":"2.B.2.Nf","macrogroupKey":"M049","taxgroupKey":"G277","allianceKey":"A3738","ecosystemType":"ASSOCIATION","classificationCode":"CEGL005379","parentName":"Quercus
        gambelii - Robinia neomexicana Shrubland Alliance"},"gRank":"GNR"},{"recordType":"ECOSYSTEM","elementGlobalId":821425,"uniqueId":"ELEMENT_GLOBAL.2.821425","nsxUrl":"/Taxon/ELEMENT_GLOBAL.2.821425/Quercus_gambelii_-_Robinia_neomexicana_-_Muhlenbergia_montana_Shrubland","elcode":"CEGL005380","scientificName":"Quercus
        gambelii - Robinia neomexicana / Muhlenbergia montana Shrubland","formattedScientificName":"<i>Quercus
        gambelii - Robinia neomexicana / Muhlenbergia montana</i> Shrubland","primaryCommonName":null,"primaryCommonNameLanguage":"EN","roundedGRank":"GNR","nations":[{"nationCode":"US","roundedNRank":"NNR","subnations":[{"subnationCode":"NM","roundedSRank":"SNR"}]}],"lastModified":"2020-04-30T12:32:09.365704Z","ecosystemGlobal":{"translatedScientificName":"Gambel
        Oak - New Mexico Locust / Mountain Muhly Shrubland","taxclassCode":"2","taxsubclassCode":"2.B","formationCode":"2.B.2","divisionCode":"2.B.2.Nf","macrogroupKey":"M049","taxgroupKey":"G277","allianceKey":"A3738","ecosystemType":"ASSOCIATION","classificationCode":"CEGL005380","parentName":"Quercus
        gambelii - Robinia neomexicana Shrubland Alliance"},"gRank":"GNR"},{"recordType":"ECOSYSTEM","elementGlobalId":689005,"uniqueId":"ELEMENT_GLOBAL.2.689005","nsxUrl":"/Taxon/ELEMENT_GLOBAL.2.689005/Quercus_gambelii_-_Robinia_neomexicana_-_Symphoricarpos_rotundifolius_Shrubland","elcode":"CEGL001116","scientificName":"Quercus
        gambelii / Robinia neomexicana / Symphoricarpos rotundifolius Shrubland","formattedScientificName":"<i>Quercus
        gambelii / Robinia neomexicana / Symphoricarpos rotundifolius</i> Shrubland","primaryCommonName":null,"primaryCommonNameLanguage":"EN","roundedGRank":"GU","nations":[{"nationCode":"US","roundedNRank":"NNR","subnations":[{"subnationCode":"NM","roundedSRank":"SU"},{"subnationCode":"AZ","roundedSRank":"SNR"}]}],"lastModified":"2020-04-30T12:28:42.409313Z","ecosystemGlobal":{"translatedScientificName":"Gambel
        Oak / New Mexico Locust / Roundleaf Snowberry Shrubland","taxclassCode":"2","taxsubclassCode":"2.B","formationCode":"2.B.2","divisionCode":"2.B.2.Nf","macrogroupKey":"M049","taxgroupKey":"G277","allianceKey":"A3738","ecosystemType":"ASSOCIATION","classificationCode":"CEGL001116","parentName":"Quercus
        gambelii - Robinia neomexicana Shrubland Alliance"},"gRank":"GU"},{"recordType":"ECOSYSTEM","elementGlobalId":689150,"uniqueId":"ELEMENT_GLOBAL.2.689150","nsxUrl":"/Taxon/ELEMENT_GLOBAL.2.689150/Quercus_gambelii_-_Robinia_neomexicana_Shrubland","elcode":"CEGL001115","scientificName":"Quercus
        gambelii / Robinia neomexicana Shrubland","formattedScientificName":"<i>Quercus
        gambelii / Robinia neomexicana</i> Shrubland","primaryCommonName":null,"primaryCommonNameLanguage":"EN","roundedGRank":"G4","nations":[{"nationCode":"US","roundedNRank":"NNR","subnations":[{"subnationCode":"AZ","roundedSRank":"S4"},{"subnationCode":"NM","roundedSRank":"SNR"}]}],"lastModified":"2020-04-30T12:28:49.206413Z","ecosystemGlobal":{"translatedScientificName":"Gambel
        Oak / New Mexico Locust Shrubland","taxclassCode":"2","taxsubclassCode":"2.B","formationCode":"2.B.2","divisionCode":"2.B.2.Nf","macrogroupKey":"M049","taxgroupKey":"G277","allianceKey":"A3738","ecosystemType":"ASSOCIATION","classificationCode":"CEGL001115","parentName":"Quercus
        gambelii - Robinia neomexicana Shrubland Alliance"},"gRank":"G4"},{"recordType":"ECOSYSTEM","elementGlobalId":821379,"uniqueId":"ELEMENT_GLOBAL.2.821379","nsxUrl":"/Taxon/ELEMENT_GLOBAL.2.821379/Robinia_neomexicana_-_Carex_inops_ssp_heliophila_Shrubland","elcode":"CEGL005375","scientificName":"Robinia
        neomexicana / Carex inops ssp. heliophila Shrubland","formattedScientificName":"<i>Robinia
        neomexicana / Carex inops ssp. heliophila</i> Shrubland","primaryCommonName":null,"primaryCommonNameLanguage":"EN","roundedGRank":"GNR","nations":[{"nationCode":"US","roundedNRank":"NNR","subnations":[{"subnationCode":"NM","roundedSRank":"SNR"}]}],"lastModified":"2020-04-30T12:32:08.927953Z","ecosystemGlobal":{"translatedScientificName":"New
        Mexico Locust / Sun Sedge Shrubland","taxclassCode":"2","taxsubclassCode":"2.B","formationCode":"2.B.2","divisionCode":"2.B.2.Nf","macrogroupKey":"M049","taxgroupKey":"G277","allianceKey":"A3738","ecosystemType":"ASSOCIATION","classificationCode":"CEGL005375","parentName":"Quercus
        gambelii - Robinia neomexicana Shrubland Alliance"},"gRank":"GNR"},{"recordType":"ECOSYSTEM","elementGlobalId":685870,"uniqueId":"ELEMENT_GLOBAL.2.685870","nsxUrl":"/Taxon/ELEMENT_GLOBAL.2.685870/Robinia_neomexicana_-_Thalictrum_fendleri_Shrubland","elcode":"CEGL001125","scientificName":"Robinia
        neomexicana / Thalictrum fendleri Shrubland","formattedScientificName":"<i>Robinia
        neomexicana / Thalictrum fendleri</i> Shrubland","primaryCommonName":null,"primaryCommonNameLanguage":"EN","roundedGRank":"GNR","nations":[{"nationCode":"US","roundedNRank":"NNR","subnations":[{"subnationCode":"NM","roundedSRank":"SNR"}]}],"lastModified":"2020-04-30T12:26:16.172723Z","ecosystemGlobal":{"translatedScientificName":"New
        Mexico Locust / Fendler''s Meadowrue Shrubland","taxclassCode":"2","taxsubclassCode":"2.B","formationCode":"2.B.2","divisionCode":"2.B.2.Nf","macrogroupKey":"M049","taxgroupKey":"G277","allianceKey":"A3738","ecosystemType":"ASSOCIATION","classificationCode":"CEGL001125","parentName":"Quercus
        gambelii - Robinia neomexicana Shrubland Alliance"},"gRank":"GNR"}],"resultsSummary":{"page":0,"recordsPerPage":20,"totalPages":2,"totalResults":23,"ecosystemResults":{"total":23,"classes":0,"subclasses":0,"formations":0,"divisions":0,"macrogroups":1,"groups":1,"alliances":3,"associations":18,"terrestrialEcologicalSystems":0}},"searchCriteria":{"criteriaType":"ecosystems","textCriteria":[{"paramType":"quickSearch","searchToken":"robin"}],"statusCriteria":null,"locationCriteria":null,"pagingOptions":{"page":0,"recordsPerPage":20},"recordSubtypeCriteria":null,"modifiedSince":null,"ecosystemsTaxonomyCriteria":null}}'
  recorded_at: 2020-05-12 23:11:43 GMT
  recorded_with: vcr/0.5.4, webmockr/0.6.2
